"P1"			,	"P2"
"0"			,	"0"
"-"			,	"CTA CTE 0 - 30 - 60 DIAS F.F."
"0"			,	"0"
"DOLARES"		,	" PESOS"
"4,55000"		,	"1,00000"
"$ 1683500,0000"	,	"$ 345018,5200"
"$ 0,0000"		,	"$ 51800,5047"
"$ 0,0000"		,	"$ 5944,3178"
"$ 1683500,0000"	,	"$ 402763,3425"
