"Pago"			,"Recibo"		,"Proveedor"						,"Usuario"	,"Monto"
"0000-00000081"		,"0000-00000001"	,"FODE S.A."						,"NICOLAS"	,"282,01"
"0000-00000082"		,"0000-00000002"	,"GUSTAVO DANIEL ACCORSO"				,"NICOLAS"	,"4682,70"
"0000-00000083"		,"0000-00000003"	,"LENCIONI S.R.L."					,"NICOLAS"	,"471,90"
"0000-00000084"		,"0000-00000004"	,"ID S.A."						,"NICOLAS"	,"254,10"
"0000-00000085"		,"0000-00000005"	,"BRUNO STORTI MARIA INES"				,"NICOLAS"	,"955,90"
"0000-00000086"		,"0000-00000006"	,"ADRIANA B. ROMERO Y VARELA J. ORLANDO"		,"NICOLAS"	,"600,00"
"0000-00000087"		,"0000-00000007"	,"BREGI TATIANA INES"					,"NICOLAS"	,"683,00"
"0000-00000088"		,"0000-00000008"	,"NIK S.R.L."						,"NICOLAS"	,"590,19"
"0000-00000089"		,"0000-00000009"	,"ALEJANDRO JORGE JACOB"				,"NICOLAS"	,"408,98"

"0000-00043719"		,"0000-00004166"	,"EPEC"							,"MARTINBUSTOS"	,"9586,50"
"0000-00043720"		,"0000-00004167"	,"PINTECORD S.R.L."					,"MARTINBUSTOS"	,"2088,00"
"0000-00043721"		,"0000-00004168"	,"TELECOM PERSONAL S.A."				,"MARTINBUSTOS"	,"570,95"
"0000-00043722"		,"0000-00004169"	,"TELECOM PERSONAL S.A."				,"MARTINBUSTOS"	,"4632,73"
"ANULADO"		,"0000-00004170"	,"LINER SHIPPING SERVICES S.A."				,"MARTINBUSTOS"	,"0,00"
"0000-00043726"		,"0000-00004171"	,"LINER SHIPPING SERVICES S.A."				,"MARTINBUSTOS"	,"54627,02"
"0000-00043758"		,"0000-00004172"	,"AFIP - ADUANA"					,"MVAQUEL"	,"299345,70"
"0000-00043856"		,"0000-00004173"	,"EDUARDO RAUL SERENA Y ASOC. S.R.L."			,"MARTINBUSTOS"	,"16732,49"
"ANULADO"		,"0000-00004174"	,"AFIP - ADUANA"					,"MVAQUEL"	,"0,00"
"0000-00043890"		,"0000-00004175"	,"INTI - INSTITUTO NACIONAL DE TECNOLOGIA INDUSTRIAL"	,"MARTINBUSTOS"	,"400,00"

"0000-00072483"		,"0000-00008323"	,"SERENA EDUARDO RAUL"					,"MARTINBUSTOS"	,"605,00"
"0000-00072489"		,"0000-00008324"	,"NEXTEL COMMUNICATIONS ARGENTINA SRL"			,"MARTINBUSTOS"	,"324,04"
"0000-00072520"		,"0000-00008325"	,"CAMARA DE COMERCIO EXTERIOR DE CORDOBA"		,"SBITTAR"	,"18476,72"
"0000-00072521"		,"0000-00008326"	,"MENDEZ DANIEL ANTONIO"				,"SBITTAR"	,"4537,50"
"0000-00072522"		,"0000-00008327"	,"TNT ARGENTINA S.A."					,"SBITTAR"	,"143,30"
"0000-00072523"		,"0000-00008328"	,"CONTINUOS CORDOBA S.A."				,"SBITTAR"	,"1016,40"
"0000-00072524"		,"0000-00008329"	,"AFIP - ADUANA"					,"MARTINBUSTOS"	,"194028,00"
"0000-00072526"		,"0000-00008330"	,"LAGO OSBALDO ORESTE"					,"MARTINBUSTOS"	,"18972,80"
"0000-00072536"		,"0000-00008331"	,"PROVEEDOR DE IMPORTACION"				,"CHAN"		,"3837,89"
"ANULADO"		,"5001-00125622"	,"CORREO ANDREANI S.A."					,"NICOLAS"	,"0,00"

"0000-00012719"		,"0000-00000929"	,"SERGIO ANDRES MANERA"					,"MARTINBUSTOS"	,"395,00"
"ANULADO"		,"0000-00000930"	,"AFIP - ADUANA"					,"MVAQUEL"	,"0,00"
"0000-00012776"		,"0000-00000931"	,"TRANSPORTE ARIAS S.A."				,"MARTINBUSTOS"	,"2100,00"

"0000-00013349"		,"0000-00001003"	,"AFIP - ADUANA"					,"MARTINBUSTOS"	,"1248,00"
"0000-00013350"		,"0000-00001004"	,"AFIP - ADUANA"					,"MARTINBUSTOS"	,"1872,00"
"0000-00013355"		,"0000-00001005"	,"AFIP - ADUANA"					,"MARTINBUSTOS"	,"128077,44"

"0000-00016111"		,"0000-00001474"	,"SINDES S.R.L."					,"MARTINBUSTOS"	,"20802,12"
"0000-00022716"		,"0000-00002207"	,"ADT SECURITY SERVICES S.A."				,"MVAQUEL"	,"170,99"
"0000-00022717"		,"0000-00002208"	,"LABORATORIO DE INVESTIGACION Y DESARROLLO S.A."	,"MVAQUEL"	,"153,67"

"ANULADO"		,"0000-00000037"	,"ID S.A."						,"SCHAUVINHOLD"	,"0,00"
"ANULADO"		,"0000-00000045"	,"NICOLAS MORANDI"					,"SCHAUVINHOLD"	,"0,00"
"ANULADO"		,"0000-00000058"	,"MAESTRE ILUMINACION S.A."				,"SCHAUVINHOLD"	,"0,00"

"ANULADO"		,"0000-00003106"	,"CARLOS TIMOTEO CLAVERO"				,"MARTINBUSTOS"	,"0,00"
"ANULADO"		,"0000-00003107"	,"ZOFRACOR S.A."					,"MARTINBUSTOS"	,"0,00"
"ANULADO"		,"0000-00003141"	,"BECERRA BURASATIL S.A."				,"MVAQUEL"	,"0,00"

"ANULADO"		,"0000-00008245"	,"HSBC BANK ARGENTINA S.A."				,"GHOLLOLA"	,"0,00"
"ANULADO"		,"0000-00008320"	,"LAGO OSBALDO ORESTE"					,"MARTINBUSTOS"	,"0,00"
"ANULADO"		,"5001-00125622"	,"CORREO ANDREANI S.A."					,"NICOLAS"	,"0,00"

"0000-00072540"		,"0000-00008332"	,"PROVEEDOR RESPONSABLE INSCRIPTO"			,"CHAN"		,"1000,00"
"0000-00072541"		,"0000-00008333"	,"PROVEEDOR RESPONSABLE INSCRIPTO"			,"CHAN"		,"9340,55"
"0000-00072542"		,"0000-00008334"	,"PROVEEDOR RESPONSABLE INSCRIPTO"			,"CHAN"		,"1500,00"
"0000-00072543"		,"0000-00008335"	,"PROVEEDOR RESPONSABLE INSCRIPTO"			,"CHAN"		,"11427,67"
"0000-00072544"		,"0000-00008336"	,"PROVEEDOR RESPONSABLE INSCRIPTO"			,"CHAN"		,"7006,79"
"0000-00072545"		,"0000-00008337"	,"PROVEEDOR RESPONSABLE INSCRIPTO"			,"CHAN"		,"955,48"

"ANULADO"		,"0000-00008332"	,"PROVEEDOR RESPONSABLE INSCRIPTO"			,"CHAN"		,"0,00"
"ANULADO"		,"0000-00008333"	,"PROVEEDOR RESPONSABLE INSCRIPTO"			,"CHAN"		,"0,00"
"ANULADO"		,"0000-00008334"	,"PROVEEDOR RESPONSABLE INSCRIPTO"			,"CHAN"		,"0,00"
"ANULADO"		,"0000-00008335"	,"PROVEEDOR RESPONSABLE INSCRIPTO"			,"CHAN"		,"0,00"
"ANULADO"		,"0000-00008336"	,"PROVEEDOR RESPONSABLE INSCRIPTO"			,"CHAN"		,"0,00"
"ANULADO"		,"0000-00008337"	,"PROVEEDOR RESPONSABLE INSCRIPTO"			,"CHAN"		,"0,00"