"CODIGO"	,"ARTICULO"
"A1"		,"ARTICULO SIMPLE C/21% IVA"			
"A2"		,"ARTICULO SIMPLE C/10,5% IVA"		
"A3"		,"ARTICULO SIMPLE C/0% IVA"			
"A4"		,"ARTICULO C/SERIE C/21% IVA"			
"A5"		,"ARTICULO C/SERIE Y DESPACHO C/10,5% IVA"	
"A6"		,"ARTICULO C/DESPACHO C/0% IVA"	